{
    "KPlugin": {
        "Authors": [
            {
                "Email": "plasma-devel@kde.org",
                "Name": "Gregor Taetzner",
                "Name[ar]": "Gregor Taetzner",
                "Name[az]": "Gregor Taetzner",
                "Name[bg]": "Gregor Taetzner",
                "Name[ca@valencia]": "Gregor Taetzner",
                "Name[ca]": "Gregor Taetzner",
                "Name[cs]": "Gregor Taetzner",
                "Name[da]": "Gregor Taetzner",
                "Name[de]": "Gregor Taetzner",
                "Name[en_GB]": "Gregor Taetzner",
                "Name[es]": "Gregor Taetzner",
                "Name[eu]": "Gregor Taetzner",
                "Name[fi]": "Gregor Taetzner",
                "Name[fr]": "Gregor Taetzner",
                "Name[hu]": "Gregor Taetzner",
                "Name[ia]": "Gregor Taetzner",
                "Name[id]": "Gregor Taetzner",
                "Name[is]": "Gregor Taetzner",
                "Name[it]": "Gregor Taetzner",
                "Name[ja]": "Gregor Taetzner",
                "Name[ka]": "Gregor Taetzner",
                "Name[ko]": "Gregor Taetzner",
                "Name[lt]": "Gregor Taetzner",
                "Name[nl]": "Gregor Taetzner",
                "Name[nn]": "Gregor Taetzner",
                "Name[pl]": "Gregor Taetzner",
                "Name[pt]": "Gregor Taetzner",
                "Name[pt_BR]": "Gregor Taetzner",
                "Name[ro]": "Gregor Taetzner",
                "Name[ru]": "Gregor Taetzner",
                "Name[sk]": "Gregor Taetzner",
                "Name[sl]": "Gregor Taetzner",
                "Name[sv]": "Gregor Taetzner",
                "Name[ta]": "கிரெகோர் டாட்ஸ்னர்",
                "Name[tr]": "Gregor Taetzner",
                "Name[uk]": "Gregor Taetzner",
                "Name[vi]": "Gregor Taetzner",
                "Name[x-test]": "xxGregor Taetznerxx",
                "Name[zh_CN]": "Gregor Taetzner"
            }
        ],
        "Category": "",
        "Description": "PackageKit Data Engine",
        "Description[ar]": "محرّك بيانات عُدّة الحزم",
        "Description[az]": "PackageKit verilənlər mənbəyi",
        "Description[bg]": "Енджин за данни на PackageKit",
        "Description[ca@valencia]": "Motor de dades de PackageKit",
        "Description[ca]": "Motor de dades del PackageKit",
        "Description[cs]": "Datový nástroj PackageKit",
        "Description[da]": "PackageKit datamotor",
        "Description[de]": "Daten-Treiber für PackageKit",
        "Description[en_GB]": "PackageKit Data Engine",
        "Description[es]": "Motor de datos de PackageKit",
        "Description[eu]": "PackageKit datuen motorra",
        "Description[fi]": "PackageKit-tietomoottori",
        "Description[fr]": "Moteur de données de « PackageKit ».",
        "Description[hu]": "PackageKit adatmotor",
        "Description[ia]": "Motor de Datos (Data Engine) de PackageKit",
        "Description[id]": "Mesin Data PackageKit",
        "Description[is]": "Gagnavél fyrir PackageKit",
        "Description[it]": "Motore di dati PackageKit",
        "Description[ja]": "PackageKit データエンジン",
        "Description[ko]": "PackageKit 데이터 엔진",
        "Description[lt]": "PackageKit duomenų variklis",
        "Description[nl]": "Pakketkit Gegevensengine",
        "Description[nn]": "PackageKit-datamotor",
        "Description[pa]": "PackageKit ਡਾਟਾ ਇੰਜਣ",
        "Description[pl]": "Silnik danych PackageKit",
        "Description[pt]": "Motor de Dados do PackageKit",
        "Description[pt_BR]": "Mecanismo de dados do PackageKit",
        "Description[ro]": "Motor de date PackageKit",
        "Description[ru]": "Источник данных PackageKit",
        "Description[sk]": "Dátový engine PackageKit",
        "Description[sl]": "Podatkovni pogon PackageKit",
        "Description[sv]": "PackageKit-datagränssnitt",
        "Description[ta]": "PackageKit தரவு நிரல்",
        "Description[tr]": "PackageKit Veri Motoru",
        "Description[uk]": "Рушій даних PackageKit",
        "Description[vi]": "Dụng cụ dữ liệu PackageKit",
        "Description[x-test]": "xxPackageKit Data Enginexx",
        "Description[zh_CN]": "PackageKit 数据引擎",
        "Icon": "package-x-generic",
        "Id": "packagekit",
        "License": "GPL",
        "Name": "PackageKit",
        "Name[ar]": "عُدّة الحزم",
        "Name[ast]": "PackageKit",
        "Name[az]": "PackageKit",
        "Name[bg]": "PackageKit",
        "Name[bs]": "Paket opreme",
        "Name[ca@valencia]": "PackageKit",
        "Name[ca]": "PackageKit",
        "Name[cs]": "PackageKit",
        "Name[da]": "PackageKit",
        "Name[de]": "PackageKit",
        "Name[el]": "PackageKit",
        "Name[en_GB]": "PackageKit",
        "Name[es]": "PackageKit",
        "Name[et]": "PackageKit",
        "Name[eu]": "PackageKit",
        "Name[fi]": "PackageKit",
        "Name[fr]": "PackageKit",
        "Name[gl]": "PackageKit",
        "Name[he]": "ערכת חבילות",
        "Name[hi]": "पैकेजकिट",
        "Name[hu]": "PackageKit",
        "Name[ia]": "PackageKit (equipamento de pacchetto)",
        "Name[id]": "PackageKit",
        "Name[is]": "PackageKit",
        "Name[it]": "PackageKit",
        "Name[ja]": "PackageKit",
        "Name[ka]": "PackageKit",
        "Name[kk]": "PackageKit",
        "Name[ko]": "PackageKit",
        "Name[lt]": "PackageKit",
        "Name[ml]": "പാക്കേജ്കിറ്റ്",
        "Name[nb]": "PackageKit",
        "Name[nds]": "PackageKit",
        "Name[nl]": "PackageKit",
        "Name[nn]": "PackageKit",
        "Name[pa]": "ਪੈਕੇਜਕਿਟ",
        "Name[pl]": "PackageKit",
        "Name[pt]": "PackageKit",
        "Name[pt_BR]": "PackageKit",
        "Name[ro]": "PackageKit",
        "Name[ru]": "PackageKit",
        "Name[sk]": "PackageKit",
        "Name[sl]": "PackageKit",
        "Name[sr@ijekavian]": "Пакиџ‑кит",
        "Name[sr@ijekavianlatin]": "PackageKit",
        "Name[sr@latin]": "PackageKit",
        "Name[sr]": "Пакиџ‑кит",
        "Name[sv]": "PackageKit",
        "Name[ta]": "PackageKit",
        "Name[tr]": "PackageKit",
        "Name[uk]": "PackageKit",
        "Name[vi]": "PackageKit",
        "Name[x-test]": "xxPackageKitxx",
        "Name[zh_CN]": "PackageKit",
        "Name[zh_TW]": "PackageKit",
        "Website": "https://www.kde.org/plasma-desktop"
    }
}
