{
    "KPlugin": {
        "Authors": [
            {
                "Email": "",
                "Name": ""
            }
        ],
        "Category": "",
        "Description": "Data Engine for getting favicons of web sites",
        "Description[ar]": "محرّك بيانات للحصول على favicons من مواقع الوِب",
        "Description[az]": "Veb səhifələrin işarələrinin əldə olunması",
        "Description[bg]": "Енджин за данни за изтегляне на уеб-икони (favicons) от сайтове",
        "Description[ca@valencia]": "Motor de dades per a obtindre les icones de web dels llocs web",
        "Description[ca]": "Motor de dades per a obtenir les icones de web dels llocs web",
        "Description[cs]": "Mechanismus pro získávání ikon webových stránek",
        "Description[da]": "Datamotor til at hente favicons fra hjemmesider",
        "Description[de]": "Daten-Treiber zum Holen von Webseitensymbolen von Webseiten",
        "Description[en_GB]": "Data Engine for getting favicons of web sites",
        "Description[es]": "Motor de datos para obtener favicons de los sitios web",
        "Description[eu]": "Webgunetako web-ikonoak eskuratzeko datu-motorra",
        "Description[fi]": "Tietomoottori verkkosivustokuvakkeiden noutoon",
        "Description[fr]": "Moteur de données permettant d'obtenir les émoticônes de sites Internet",
        "Description[hu]": "Weboldalak favikonjainak letöltésére szolgáló adatmotor",
        "Description[ia]": "Motor de datos per obtener favicons del sitos web",
        "Description[id]": "Mesin Data untuk mendapatkan ikon favorit pada situs web",
        "Description[is]": "Gagnavél til söfnunar á veftáknmyndum (favicons)",
        "Description[it]": "Motore di dati per ottenere le iconcine dei siti Web",
        "Description[ja]": "ウェブサイトのファビコンを取得するためのデータエンジン",
        "Description[ko]": "웹 사이트의 파비콘을 가져오는 데이터 엔진",
        "Description[lt]": "Duomenų variklis, skirtas internetinių svetainių piktogramų gavimui",
        "Description[nl]": "Gegevensengine voor het ophalen van favicons van websites",
        "Description[nn]": "Datamotor for henting av bokmerkeikon til nettsider",
        "Description[pl]": "Silnik danych do pobierania ikon stron internetowych",
        "Description[pt]": "Um motor de dados para obter os 'favicons' das páginas Web",
        "Description[pt_BR]": "Mecanismo de dados para busca dos favicons de páginas Web",
        "Description[ro]": "Motor de date pentru preluarea pictogramelor saiturilor web",
        "Description[ru]": "Источник данных значков веб-сайтов",
        "Description[sk]": "Dátový nástroj na získavanie favikon z webových stránok",
        "Description[sl]": "Podatkovni vir za pridobivanje ikon spletnih strani",
        "Description[sv]": "Datagränssnitt för att hämta favoritikoner för webbplatser",
        "Description[ta]": "இணையதளங்களின் சின்னங்களைப் பெறும் நிரல்",
        "Description[tr]": "Web sitelerinden site simgelerini almak için bir Veri Motoru",
        "Description[uk]": "Рушій даних для отримання піктограм для вебсайтів",
        "Description[vi]": "Dụng cụ dữ liệu để lấy các biểu tượng địa điểm web",
        "Description[x-test]": "xxData Engine for getting favicons of web sitesxx",
        "Description[zh_CN]": "用于获取网站图标的数据引擎",
        "Icon": "view-web-browser-dom-tree",
        "Id": "favicons",
        "Name": "Favicons",
        "Name[ar]": "الأيقونات",
        "Name[az]": "Veb səhifələrin işarələri",
        "Name[be@latin]": "Ikony sajtaŭ",
        "Name[bg]": "Уеб-икони",
        "Name[bn]": "ফ্যাভ-আইকন",
        "Name[bn_IN]": "Favicons",
        "Name[bs]": "Favikone",
        "Name[ca@valencia]": "Icones de web",
        "Name[ca]": "Icones de web",
        "Name[cs]": "Oblíbené ikony",
        "Name[csb]": "Faviconë (ikònczi)",
        "Name[da]": "Favicons",
        "Name[de]": "Webseitensymbole",
        "Name[el]": "Αγαπημένα εικονίδια",
        "Name[en_GB]": "Favicons",
        "Name[eo]": "Favorikonoj",
        "Name[es]": "Favicons",
        "Name[et]": "Lemmikikoonid",
        "Name[eu]": "web-ikonoak",
        "Name[fi]": "Webbisivukuvakkeet",
        "Name[fr]": "Émoticônes",
        "Name[fy]": "Favicon-ôfbyldings",
        "Name[ga]": "Deilbhíní Ceanán",
        "Name[gl]": "Iconas de páxina web",
        "Name[gu]": "ફેવિકોન્સ",
        "Name[he]": "סמלי מועדפים",
        "Name[hi]": "फेविकॉन",
        "Name[hne]": "फेविकान",
        "Name[hr]": "Omiljene ikone",
        "Name[hu]": "Favikonok",
        "Name[ia]": "Favicons",
        "Name[id]": "Favicon",
        "Name[is]": "Veftáknmyndir (favicons)",
        "Name[it]": "Iconcine",
        "Name[ja]": "ファビコン",
        "Name[ka]": "რჩეული ხატულები",
        "Name[kk]": "Favicon таңбашалары",
        "Name[km]": "រូប​តំណាង​សំណព្វ",
        "Name[kn]": "ಫೆವಿಕಾನ್‌ಗಳು",
        "Name[ko]": "파비콘",
        "Name[ku]": "Nîşanên Malperan",
        "Name[lt]": "Svetainių piktogramos",
        "Name[lv]": "TīmekļaIkonas",
        "Name[mai]": "फेविकान",
        "Name[mk]": "Омилени икони",
        "Name[ml]": "ഇഷ്ടചിഹ്നങ്ങള്‍",
        "Name[mr]": "Favicons",
        "Name[nb]": "Ikoner for favorittsteder",
        "Name[nds]": "Nettsieden-Lüttbiller",
        "Name[nl]": "Favicons",
        "Name[nn]": "Bokmerke­ikon",
        "Name[or]": "Favicons",
        "Name[pa]": "ਫੇਵੀਕਾਨ",
        "Name[pl]": "Ikony stron internetowych",
        "Name[pt]": "'Favicons'",
        "Name[pt_BR]": "Favicons",
        "Name[ro]": "Pictograme saituri",
        "Name[ru]": "Значки веб-сайтов",
        "Name[si]": "Favicons",
        "Name[sk]": "Favikony",
        "Name[sl]": "Ikone spletnih strani",
        "Name[sr@ijekavian]": "фавиконе",
        "Name[sr@ijekavianlatin]": "favikone",
        "Name[sr@latin]": "favikone",
        "Name[sr]": "фавиконе",
        "Name[sv]": "Favoritikoner",
        "Name[ta]": "சின்னங்கள்",
        "Name[th]": "ไอคอนเว็บ",
        "Name[tr]": "Site Simgeleri",
        "Name[ug]": "تور بېكەت سىنبەلگە",
        "Name[uk]": "Піктограми «Вибраного»",
        "Name[vi]": "Biểu tượng trang",
        "Name[wa]": "Pititès imådjetes favicons",
        "Name[x-test]": "xxFaviconsxx",
        "Name[zh_CN]": "网站图标",
        "Name[zh_TW]": "網站圖示",
        "Website": "https://kde.org/plasma-desktop"
    }
}
