{
    "KPlugin": {
        "Description": "Applies extracted accent color from wallpaper on request",
        "Description[ar]": "تطبق لون التمييز المستخرج من صورة الخلفية عند الطلب",
        "Description[bg]": "Прилага извлечен цвят на акцента от тапета при заявка",
        "Description[ca@valencia]": "Aplica el color d'accent extret a partir del fons de pantalla a petició",
        "Description[ca]": "Aplica el color d'accent extret a partir del fons de pantalla a petició",
        "Description[en_GB]": "Applies extracted accent colour from wallpaper on request",
        "Description[es]": "Aplica el color de acentuación extraído del fondo de pantalla bajo petición",
        "Description[eu]": "Horma-paperetik ateratako azentu-kolorea ezartzen du hala eskatzean",
        "Description[fr]": "Applique une couleur accentuée extraite du fond d'écran à partir d'une requête",
        "Description[is]": "Beitir tilteknum áherslulit úr bakgrunnsmynd við beiðni",
        "Description[it]": "Applica il colore secondario estratto dallo sfondo su richiesta",
        "Description[nl]": "Past de uitgepakte accentueerkleur uit achtergrondafbeelding op verzoek toe",
        "Description[nn]": "Tek i bruk uthenta kontrastfarge frå bakgrunnsbiletet ved førespurnad",
        "Description[pl]": "Stosuje wydobytą barwę akcentu z tapety na żądanie",
        "Description[pt]": "Aplica a cor acentuada extraída do papel de parede no pedido",
        "Description[ru]": "Определение и применение цвета выделения на основании используемых обоев",
        "Description[sl]": "Uveljavi izločeno barvo poudarka iz ozadja na zahtevo",
        "Description[sv]": "Använder extraherad accentfärg från skrivbordsunderlägg på begäran",
        "Description[ta]": "கோரிக்கைக்கேற்ப, பின்புல படித்தின் பிரதான நிறத்தை நிறத்திட்டத்தின் சிறப்பு நிறமாக அமைக்கும்",
        "Description[tr]": "İsteğe bağlı olarak, duvar kağıdından çıkarılan vurgu rengini uygular",
        "Description[uk]": "Застосовує видобутий з фонового зображення стільниці колір акценту у відповідь на запит",
        "Description[vi]": "Áp dụng màu chủ đạo trích xuất từ phông nền khi có yêu cầu",
        "Description[x-test]": "xxApplies extracted accent color from wallpaper on requestxx",
        "Name": "Accent Color",
        "Name[ar]": "لون التمييز",
        "Name[bg]": "Цвят за акцентиране",
        "Name[ca@valencia]": "Color d'accent",
        "Name[ca]": "Color d'accent",
        "Name[en_GB]": "Accent Colour",
        "Name[es]": "Color de acentuación",
        "Name[eu]": "Azentu-kolorea",
        "Name[fr]": "Couleurs accentuées",
        "Name[is]": "Áherslulitur",
        "Name[it]": "Colore secondario",
        "Name[ka]": "აქცენტის ფერი",
        "Name[nl]": "Accentueringskleur",
        "Name[nn]": "Kontrast­farge",
        "Name[pl]": "Kolor akcentu",
        "Name[pt]": "Cor Acentuada",
        "Name[ru]": "Служба цвета выделения",
        "Name[sl]": "barva poudarka",
        "Name[sv]": "Accentfärg",
        "Name[ta]": "சிறப்பு நிறம்",
        "Name[tr]": "Vurgu Rengi",
        "Name[uk]": "Колір акценту",
        "Name[vi]": "Màu chủ đạo",
        "Name[x-test]": "xxAccent Colorxx"
    },
    "X-KDE-FactoryName": "accentColorService",
    "X-KDE-Kded-autoload": true
}
